Lab 9
…
Part 3

1.

In my first attempt at this problem, I forgot to include the output!

names_A <- names |>
  mutate(CountA = ifelse(Name == "Allison", Count, 0))
  
names_A |>
  group_by(State, Sex) |>
  summarise(CountA = sum(CountA), .groups = "keep") |>
  arrange(State)

# A tibble: 102 × 3
# Groups:   State, Sex [102]
   State Sex   CountA
   <chr> <chr>  <dbl>
 1 AK    F        232
 2 AK    M          0
 3 AL    F       1535
 4 AL    M          0
 5 AR    F       1198
 6 AR    M          0
 7 AZ    F       1880
 8 AZ    M          0
 9 CA    F      12413
10 CA    M          0
# … with 92 more rows
…
